public class Main
 {
   public static void main (String[]args)
   {
Scanner sc= new Scanner(System.in);  
System.out.print("Enter first number- ");  
int num1= sc.nextInt();  
System.out.print("Enter second number- ");  
int num2= sc.nextInt();  
     
       System.out.println ("both are equal");
     else if (num1 > num2)
         System.out.println (num1 + " is greater");

     else
         System.out.println (num2 + " is greater");

   }
 }
